Makeup
…
The allCategories dataset looks like this. It contains information scraped from both Ulta and Sephora.

allCategories %>% dplyr::select(brand, name, categories, hex, lightness) 

# A tibble: 5,307 x 5
   brand           name      categories hex     lightness
   <chr>           <chr>     <chr>      <chr>       <dbl>
 1 BECCA Cosmetics shell     gem        #EFCBA4     0.790
 2 BECCA Cosmetics linen     textile    #F3CEB0     0.822
 3 BECCA Cosmetics alabaster gem        #F2CBB4     0.827
 4 BECCA Cosmetics porcelain misc       #F6C8A7     0.810
 5 BECCA Cosmetics ivory     gem, color #F0C4AB     0.806
 6 BECCA Cosmetics sand      rock       #F2C79D     0.782
 7 BECCA Cosmetics cashmere  textile    #DFB38A     0.708
 8 BECCA Cosmetics vanilla   food       #EEC29C     0.773
 9 BECCA Cosmetics bisque    food       #EAB498     0.757
10 BECCA Cosmetics cashew    food       #DDAD8C     0.708
# … with 5,297 more rows

How many brands are represented in this dataset?

brands <- allCategories %>% 
  dplyr::group_by(brand) %>%
  dplyr::summarise(n = n()) %>%
  dplyr::arrange(desc(n))

brands

# A tibble: 93 x 2
   brand                  n
   <chr>              <int>
 1 bareMinerals         370
 2 Tarte                242
 3 Clinique             230
 4 MAKE UP FOR EVER     170
 5 Laura Mercier        162
 6 Too Faced            161
 7 Estée Lauder         160
 8 SEPHORA COLLECTION   159
 9 Dior                 153
10 L'Oréal              153
# … with 83 more rows
…
[1] 93  2

There are 93 represented in this dataset. Multiple products are available for each brand.

In terms of categories, there are also many different categories including food, gem, etc. Because of how substantial the dataset is, it might be easier if we focus on just one category for now.

foodSubset <- allCategories %>% dplyr::filter(categories == "food")
dim(foodSubset)

[1] 682   9

foodSubset %>% dplyr::select(brand, name, hex, lightness)

# A tibble: 682 x 4
   brand           name     hex     lightness
   <chr>           <chr>    <chr>       <dbl>
 1 BECCA Cosmetics vanilla  #EEC29C     0.773
 2 BECCA Cosmetics bisque   #EAB498     0.757
 3 BECCA Cosmetics cashew   #DDAD8C     0.708
 4 BECCA Cosmetics noisette #D49971     0.637
 5 BECCA Cosmetics cardamom #79442C     0.324
 6 BECCA Cosmetics coconut  #754127     0.306
 7 BECCA Cosmetics clove    #7B472E     0.331
 8 BECCA Cosmetics truffle  #713E2A     0.304
 9 BECCA Cosmetics cacao    #4F322C     0.241
10 BECCA Cosmetics chestnut #472D29     0.220
# … with 672 more rows
…
foodSubset_summary <- foodSubset %>%
  dplyr::filter(name %in% c("bisque",
                            "honey",
                            "almond", 
                            "chestnut",
                            "vanilla"))  %>% 
  dplyr::group_by(brand, name) %>%
  dplyr::summarise(n = n()) %>%
  dplyr::arrange(name, desc(n)) 

`summarise()` has grouped output by 'brand'. You can override using the `.groups` argument.

foodSubset_summary

# A tibble: 86 x 3
# Groups:   brand [32]
   brand                   name       n
   <chr>                   <chr>  <int>
 1 Too Faced               almond     6
 2 bareMinerals            almond     4
 3 Bobbi Brown             almond     4
 4 Laura Mercier           almond     4
 5 MAKE UP FOR EVER        almond     4
 6 NYX Professional Makeup almond     3
 7 HOURGLASS               almond     2
 8 PÜR                     almond     2
 9 Yves Saint Laurent      almond     2
10 e.l.f. Cosmetics        almond     1
# … with 76 more rows
…
