Plastics
…
countries_by_year <- clean_plastics2 %>% 
  dplyr::group_by(country, year) %>% 
  dplyr::summarise(n = n()) %>%
  dplyr::arrange(country, year)

`summarise()` regrouping output by 'country' (override with `.groups` argument)

# 50 countries participated in 2019
countries_2019 <- countries_by_year %>% 
  dplyr::filter(year == 2019) %>%
  as_tibble
countries_2019

# A tibble: 51 x 3
   country       year     n
   <chr>        <dbl> <int>
 1 Argentina     2019   251
 2 Australia     2019     1
 3 Bangladesh    2019    24
 4 Benin         2019     1
 5 Bhutan        2019     4
 6 Brazil        2019   132
 7 Bulgaria      2019    35
 8 Burkina Faso  2019    26
 9 Cameroon      2019   150
10 Canada        2019    24
# … with 41 more rows

# 55 countries participated in 2020
countries_2020 <- countries_by_year %>% 
  dplyr::filter(year == 2020) %>%
  as_tibble 
countries_2020

# A tibble: 53 x 3
   country       year     n
   <chr>        <dbl> <int>
 1 Argentina     2020   224
 2 Australia     2020    67
 3 Bangladesh    2020   141
 4 Benin         2020     1
 5 Brazil        2020    20
 6 Bulgaria      2020    13
 7 Burkina Faso  2020    13
 8 Canada        2020    41
 9 Chile         2020   119
10 China         2020   216
# … with 43 more rows

# 38 countries participated in both years
inner_join(countries_2019,
           countries_2020, 
           by = c("country")) %>% 
  as_tibble()

# A tibble: 39 x 5
   country      year.x   n.x year.y   n.y
   <chr>         <dbl> <int>  <dbl> <int>
 1 Argentina      2019   251   2020   224
 2 Australia      2019     1   2020    67
 3 Bangladesh     2019    24   2020   141
 4 Benin          2019     1   2020     1
 5 Brazil         2019   132   2020    20
 6 Bulgaria       2019    35   2020    13
 7 Burkina Faso   2019    26   2020    13
 8 Canada         2019    24   2020    41
 9 China          2019   605   2020   216
10 Colombia       2019     1   2020    23
# … with 29 more rows

How many parent companies participated per country

companies_by_country_year <- clean_plastics2 %>%
  dplyr::select(country, parent_company) %>%
  dplyr::group_by(country) %>%
  dplyr::summarise(n_companies = n()) %>%
  dplyr::arrange(desc(n_companies))

`summarise()` ungrouping output (override with `.groups` argument)

companies_by_country_year 

# A tibble: 65 x 2
   country                  n_companies
   <chr>                          <int>
 1 Empty                           1267
 2 United States Of America         945
 3 Indonesia                        874
 4 Ukraine                          825
 5 China                            821
 6 Philippines                      818
 7 Vietnam                          802
 8 Nigeria                          683
 9 Hong Kong                        556
10 India                            552
# … with 55 more rows
…
